[
  {"Name":"LoginReq",
    "Pub":{"CName":"user-login","EName":"logReq"},
    "Subs":[
      {"CName":"dm-userlogin","MName":"execRequest"}
    ]
  },
  {"Name":"LoginRes",
    "Pub":{"CName":"dm-userlogin","EName":"logRes"},
    "Subs":[
      {"CName":"user-login","MName":"execResponse"}
    ]
  },
  {"Name":"RegisterShow",
    "Pub":{"CName":"user-login","EName":"regShow"},
    "Subs":[
      {"CName":"app-pages","MName":"show"}
    ]
  },
  {"Name":"RegisterReq",
    "Pub":{"CName":"user-register","EName":"registerReq"},
    "Subs":[
      {"CName":"dm-userregister","MName":"execRequest"}
    ]
  },
  {"Name":"InitLogin",
    "Pub":{"CName":"user-register","EName":"initLogin"},
    "Subs":[
      {"CName":"app-pages","MName":"show"}
    ]
  },
  {"Name":"RegisterRes",
    "Pub":{"CName":"dm-userregister","EName":"regRes"},
    "Subs":[
      {"CName":"user-register","MName":"execResponse"}
    ]
  },
  {"Name":"RegisterResError",
    "Pub":{"CName":"dm-userregister","EName":"registerResError"},
    "Subs":[
      {"CName":"user-register","MName":"showError"}
    ]
  },
  {"Name":"LoginOK",
    "Pub":{"CName":"user-login","EName":"loginOK"},
    "Subs":[
      {"CName":"user-data","MName":"init"}
    ]
  },
  {"Name":"GetData",
    "Pub":{"CName":"user-data","EName":"getData"},
    "Subs":[
      {"CName":"dm-userdata","MName":"execRequest"},
      {"CName":"app-pages","MName":"show"}
    ]
  },
  {"Name":"ShowData",
    "Pub":{"CName":"dm-userdata","EName":"showData"},
    "Subs":[
      {"CName":"user-data","MName":"show"}
    ]
  },
  {"Name":"ShowData",
    "Pub":{"CName":"user-register","EName":"showData"},
    "Subs":[
      {"CName":"user-data","MName":"show"},
      {"CName":"app-pages","MName":"show"}
    ]
  },
  {"Name":"InitMovements",
    "Pub":{"CName":"user-data","EName":"initMovements"},
    "Subs":[
      {"CName":"user-movements","MName":"init"}
    ]
  },
  {"Name":"GetMovements",
    "Pub":{"CName":"user-movements","EName":"getMovements"},
    "Subs":[
      {"CName":"dm-usermovements","MName":"execRequest"},
      {"CName":"app-pages","MName":"show"}
    ]
  },
  {"Name":"ShowMovements",
    "Pub":{"CName":"dm-usermovements","EName":"showMovements"},
    "Subs":[
      {"CName":"user-movements","MName":"show"}
    ]
  },
  {"Name":"ShowMovementsBack",
    "Pub":{"CName":"user-movements","EName":"showMovementsBack"},
    "Subs":[
      {"CName":"app-pages","MName":"show"}
    ]
  },
  {"Name":"InitTransfer",
    "Pub":{"CName":"user-data","EName":"initTransfer"},
    "Subs":[
      {"CName":"user-transfer","MName":"initTransfer"}
    ]
  },
  {"Name":"ShowTransfer",
    "Pub":{"CName":"user-transfer","EName":"showTransfer"},
    "Subs":[
      {"CName":"app-pages","MName":"show"}
    ]
  },
  {"Name":"CreateTransfer",
    "Pub":{"CName":"user-transfer","EName":"createTransfer"},
    "Subs":[
      {"CName":"dm-usertransfer","MName":"createRequest"}
    ]
  },
  {"Name":"CreateTransferResponse",
    "Pub":{"CName":"dm-usertransfer","EName":"createTransferResponse"},
    "Subs":[
      {"CName":"user-transfer","MName":"createResponse"}
    ]
  },
  {"Name":"ConfirmTransfer",
    "Pub":{"CName":"user-transfer","EName":"confirmTransfer"},
    "Subs":[
      {"CName":"dm-usertransfer","MName":"confirmRequest"}
    ]
  },
  {"Name":"ConfirmTransferResponse",
    "Pub":{"CName":"dm-usertransfer","EName":"confirmTransferResponse"},
    "Subs":[
      {"CName":"user-transfer","MName":"confirmResponse"}
    ]
  },
  {"Name":"ShowMovementsBack",
    "Pub":{"CName":"user-transfer","EName":"showMovementsBack"},
    "Subs":[
      {"CName":"app-pages","MName":"show"}
    ]
  },
  {"Name":"ShowMovementsBack2",
    "Pub":{"CName":"user-transfer","EName":"showMovementsBack2"},
    "Subs":[
      {"CName":"user-data","MName":"init"}
    ]
  },
  {"Name":"AddAccount",
    "Pub":{"CName":"user-data","EName":"addAccount"},
    "Subs":[
      {"CName":"dm-accountadd","MName":"execRequest"}
    ]
  },
  {"Name":"AddAccountResponse",
    "Pub":{"CName":"dm-accountadd","EName":"addAccountResponse"},
    "Subs":[
      {"CName":"user-data","MName":"addAccountResponse"}
    ]
  },
  {"Name":"AddAccountResponseError",
    "Pub":{"CName":"dm-accountadd","EName":"addAccountResponseError"},
    "Subs":[
      {"CName":"user-data","MName":"addAccountResponseError"}
    ]
  },
  {"Name":"AddCard",
    "Pub":{"CName":"user-data","EName":"addCard"},
    "Subs":[
      {"CName":"dm-cardadd","MName":"execRequest"}
    ]
  },
  {"Name":"AddCardResponse",
    "Pub":{"CName":"dm-cardadd","EName":"addCardResponse"},
    "Subs":[
      {"CName":"user-data","MName":"addCardResponse"}
    ]
  },
  {"Name":"AddCardResponseError",
    "Pub":{"CName":"dm-cardadd","EName":"addCardResponseError"},
    "Subs":[
      {"CName":"user-data","MName":"addCardResponseError"}
    ]
  }
]
